{
  "id": "symbaroum-zh-tw",
  "title": "辛柏隆正體中文（Symbaroum Chinese Traditional）",
  "description": "為 FVTT 中的辛柏隆系统增加正體中文。",
  "authors": [
    {
      "name": "Sass",
      "flags": {}
    }
  ],
  "url": "https://gitlab.com/fvtt-zh_TW/symbaroum-zh-tw",
  "flags": {},
  "compatibility": {
    "minimum": "10",
    "verified": "10",
    "maximum": "10"
  },
  "esmodules": [],
  "styles": [],
  "languages": [
    {
      "lang": "zh-TW",
      "name": "正體中文",
      "path": "./lang/zh-tw.json"
    }
  ],
  "socket": false,
  "manifest": "https://gitlab.com/fvtt-zh_TW/symbaroum-zh-tw/-/raw/10/module.json",
  "download": "https://gitlab.com/fvtt-zh_TW/symbaroum-zh-tw/-/archive/10/symbaroum-zh-tw-10.zip",
  "protected": false,
  "coreTranslation": false
}
